<svg xmlns="http://www.w3.org/2000/svg" width="403.671" height="164.792" viewBox="0 0 403.671 164.792">
  <path id="Path_72" data-name="Path 72" d="M8733.713,3092.214v-37.4H8614.977v25.355a6.927,6.927,0,1,0,13.85,0V3018.3h75.2v73.913m-204.537-48.441-10.123,24.782m19.189,0h-19.189l-13.812-15.85H8495.9Zm-5.756-24.782h-9.211m-27.25,25.962,10.746-26.355-5.373-2.361m6.527,27.536a11.9,11.9,0,1,0-11.9,12.195A12.05,12.05,0,0,0,8478.242,3068.554Zm41.061,0a11.9,11.9,0,1,0-11.9,12.195A12.047,12.047,0,0,0,8519.3,3068.554Zm-113.006-22.09-.084,38.866m12.611-32.967c-.02,9.239-7.6,15.344-12.494,15.333-4.994-.012-12.447-6.151-12.426-15.391s12.512-24.146,12.512-24.146S8418.844,3043.123,8418.824,3052.363Zm340.248-3.449-.086,38.866m12.613-32.967c-.023,9.24-7.6,15.344-12.494,15.333-5-.012-12.447-6.151-12.428-15.391s12.514-24.146,12.514-24.146S8771.617,3045.573,8771.6,3054.813Zm-343.66-90.457a5.98,5.98,0,0,1,.666.039,10.24,10.24,0,0,1-.1-1.394,9.385,9.385,0,1,1,18.764,0c0,.044,0,.087-.006.132a6.76,6.76,0,0,1,3.027-.712,7.1,7.1,0,0,1,0,14.2h-22.354a6.133,6.133,0,0,1,0-12.263Zm54.055,19.925a9.816,9.816,0,0,1,1.111.064,16.609,16.609,0,0,1-.166-2.327,15.664,15.664,0,1,1,31.318,0c0,.074,0,.146-.006.219a11.291,11.291,0,0,1,5.051-1.188,11.853,11.853,0,0,1,0,23.7h-37.2v0l-.105,0s-9.984-4.582-9.984-10.234A10.111,10.111,0,0,1,8481.994,2984.281Zm112.91,65.77h-6.387v6.546h6.387Zm0-16.133h-6.387v6.545h6.387Zm62.4-6.831h-6.387v6.545h6.387Zm-14.408,0h-6.385v6.545h6.385Zm-47.992-9.3h-6.387v6.545h6.387Zm-14.4,32.266h-6.387v6.546h6.387Zm0-16.133h-6.387v6.545h6.387Zm0-16.133h-6.387v6.545h6.387Zm89.887.517.006-68.8-49.225-19.327-.082,162.325c-8.583,0-8.4-.285-15.629-.285l.029-101.261-41.965,16.666v77.621s-142.419.09-194.593.09" transform="translate(-8368.929 -2928.707)" fill="none" stroke="#003878" stroke-miterlimit="10" stroke-width="2"/>
</svg>
