<svg xmlns="http://www.w3.org/2000/svg" width="144.693" height="31.983" viewBox="0 0 144.693 31.983">
  <g id="Group_194" data-name="Group 194" transform="translate(-135.385 -296.553)">
    <g id="crown" transform="translate(135.385 296.553)">
      <path id="Path_75" data-name="Path 75" d="M58.4,55.082H22.687a.812.812,0,0,1-.768-.548l-5.338-15.57a.813.813,0,0,1,.5-1.031.794.794,0,0,1,.392-.033.809.809,0,0,1,.694.483c.66,1.5,3.008,6.337,5.746,6.337l.1,0c1.652-.073,4.235-1.98,7.163-10.64a.812.812,0,0,1,1.538,0c1,2.953,4.349,10.6,7.828,10.6h.028c1.649-.02,4.185-1.871,6.9-10.576a.812.812,0,0,1,.775-.57h.008a.811.811,0,0,1,.771.586c.83,2.858,3.773,10.344,7.384,10.656,2.109.174,4.448-2.213,6.757-6.929a.812.812,0,0,1,1.5.62l-5.5,16.077A.812.812,0,0,1,58.4,55.082ZM23.267,53.459H57.818L61,44.168c-1.537,1.626-3.1,2.352-4.724,2.215-4-.348-6.742-6.11-8.018-9.5-2.253,6.29-4.769,9.372-7.66,9.406h-.046c-4.041,0-7.16-6.195-8.573-9.612-2.411,6.363-5,9.526-7.882,9.656a5.266,5.266,0,0,1-3.874-1.772Zm0,0" transform="translate(-14.571 -29.592)" fill="#003878"/>
      <path id="Path_76" data-name="Path 76" d="M97.964,209.319H62.253a.811.811,0,0,1-.811-.812v-6.493a.812.812,0,0,1,1.623,0V207.7H97.152v-5.682a.812.812,0,0,1,1.623,0v6.493A.811.811,0,0,1,97.964,209.319Zm0,0" transform="translate(-54.137 -177.336)" fill="#003878"/>
      <path id="Path_77" data-name="Path 77" d="M128.43,6.008a2.777,2.777,0,1,1,2.778-2.777A2.781,2.781,0,0,1,128.43,6.008Zm0-3.931a1.154,1.154,0,1,0,1.154,1.154A1.156,1.156,0,0,0,128.43,2.077Zm0,0" transform="translate(-110.714 -0.453)" fill="#003878"/>
      <path id="Path_78" data-name="Path 78" d="M260.7,6.008a2.777,2.777,0,1,1,2.778-2.777A2.781,2.781,0,0,1,260.7,6.008Zm0-3.931a1.154,1.154,0,1,0,1.155,1.154A1.155,1.155,0,0,0,260.7,2.077Zm0,0" transform="translate(-227.254 -0.453)" fill="#003878"/>
      <path id="Path_79" data-name="Path 79" d="M392.961,39.078a2.777,2.777,0,1,1,2.777-2.777A2.781,2.781,0,0,1,392.961,39.078Zm0-3.931a1.154,1.154,0,1,0,1.154,1.154A1.155,1.155,0,0,0,392.961,35.147Zm0,0" transform="translate(-343.795 -29.592)" fill="#003878"/>
      <path id="Path_80" data-name="Path 80" d="M2.777,39.078A2.777,2.777,0,1,1,5.555,36.3,2.781,2.781,0,0,1,2.777,39.078Zm0-3.931A1.154,1.154,0,1,0,3.932,36.3,1.155,1.155,0,0,0,2.777,35.147Zm0,0" transform="translate(0 -29.592)" fill="#003878"/>
    </g>
    <g id="crown-2" data-name="crown" transform="translate(181.926 296.553)">
      <path id="Path_75-2" data-name="Path 75" d="M58.4,55.082H22.687a.812.812,0,0,1-.768-.548l-5.338-15.57a.813.813,0,0,1,.5-1.031.794.794,0,0,1,.392-.033.809.809,0,0,1,.694.483c.66,1.5,3.008,6.337,5.746,6.337l.1,0c1.652-.073,4.235-1.98,7.163-10.64a.812.812,0,0,1,1.538,0c1,2.953,4.349,10.6,7.828,10.6h.028c1.649-.02,4.185-1.871,6.9-10.576a.812.812,0,0,1,.775-.57h.008a.811.811,0,0,1,.771.586c.83,2.858,3.773,10.344,7.384,10.656,2.109.174,4.448-2.213,6.757-6.929a.812.812,0,0,1,1.5.62l-5.5,16.077A.812.812,0,0,1,58.4,55.082ZM23.267,53.459H57.818L61,44.168c-1.537,1.626-3.1,2.352-4.724,2.215-4-.348-6.742-6.11-8.018-9.5-2.253,6.29-4.769,9.372-7.66,9.406h-.046c-4.041,0-7.16-6.195-8.573-9.612-2.411,6.363-5,9.526-7.882,9.656a5.266,5.266,0,0,1-3.874-1.772Zm0,0" transform="translate(-14.571 -29.592)" fill="#003878"/>
      <path id="Path_76-2" data-name="Path 76" d="M97.964,209.319H62.253a.811.811,0,0,1-.811-.812v-6.493a.812.812,0,0,1,1.623,0V207.7H97.152v-5.682a.812.812,0,0,1,1.623,0v6.493A.811.811,0,0,1,97.964,209.319Zm0,0" transform="translate(-54.137 -177.336)" fill="#003878"/>
      <path id="Path_77-2" data-name="Path 77" d="M128.43,6.008a2.777,2.777,0,1,1,2.778-2.777A2.781,2.781,0,0,1,128.43,6.008Zm0-3.931a1.154,1.154,0,1,0,1.154,1.154A1.156,1.156,0,0,0,128.43,2.077Zm0,0" transform="translate(-110.714 -0.453)" fill="#003878"/>
      <path id="Path_78-2" data-name="Path 78" d="M260.7,6.008a2.777,2.777,0,1,1,2.778-2.777A2.781,2.781,0,0,1,260.7,6.008Zm0-3.931a1.154,1.154,0,1,0,1.155,1.154A1.155,1.155,0,0,0,260.7,2.077Zm0,0" transform="translate(-227.254 -0.453)" fill="#003878"/>
      <path id="Path_79-2" data-name="Path 79" d="M392.961,39.078a2.777,2.777,0,1,1,2.777-2.777A2.781,2.781,0,0,1,392.961,39.078Zm0-3.931a1.154,1.154,0,1,0,1.154,1.154A1.155,1.155,0,0,0,392.961,35.147Zm0,0" transform="translate(-343.795 -29.592)" fill="#003878"/>
      <path id="Path_80-2" data-name="Path 80" d="M2.777,39.078A2.777,2.777,0,1,1,5.555,36.3,2.781,2.781,0,0,1,2.777,39.078Zm0-3.931A1.154,1.154,0,1,0,3.932,36.3,1.155,1.155,0,0,0,2.777,35.147Zm0,0" transform="translate(0 -29.592)" fill="#003878"/>
    </g>
    <g id="crown-3" data-name="crown" transform="translate(228.134 296.553)">
      <path id="Path_75-3" data-name="Path 75" d="M58.4,55.082H22.687a.812.812,0,0,1-.768-.548l-5.338-15.57a.813.813,0,0,1,.5-1.031.794.794,0,0,1,.392-.033.809.809,0,0,1,.694.483c.66,1.5,3.008,6.337,5.746,6.337l.1,0c1.652-.073,4.235-1.98,7.163-10.64a.812.812,0,0,1,1.538,0c1,2.953,4.349,10.6,7.828,10.6h.028c1.649-.02,4.185-1.871,6.9-10.576a.812.812,0,0,1,.775-.57h.008a.811.811,0,0,1,.771.586c.83,2.858,3.773,10.344,7.384,10.656,2.109.174,4.448-2.213,6.757-6.929a.812.812,0,0,1,1.5.62l-5.5,16.077A.812.812,0,0,1,58.4,55.082ZM23.267,53.459H57.818L61,44.168c-1.537,1.626-3.1,2.352-4.724,2.215-4-.348-6.742-6.11-8.018-9.5-2.253,6.29-4.769,9.372-7.66,9.406h-.046c-4.041,0-7.16-6.195-8.573-9.612-2.411,6.363-5,9.526-7.882,9.656a5.266,5.266,0,0,1-3.874-1.772Zm0,0" transform="translate(-14.571 -29.592)" fill="#003878"/>
      <path id="Path_76-3" data-name="Path 76" d="M97.964,209.319H62.253a.811.811,0,0,1-.811-.812v-6.493a.812.812,0,0,1,1.623,0V207.7H97.152v-5.682a.812.812,0,0,1,1.623,0v6.493A.811.811,0,0,1,97.964,209.319Zm0,0" transform="translate(-54.137 -177.336)" fill="#003878"/>
      <path id="Path_77-3" data-name="Path 77" d="M128.43,6.008a2.777,2.777,0,1,1,2.778-2.777A2.781,2.781,0,0,1,128.43,6.008Zm0-3.931a1.154,1.154,0,1,0,1.154,1.154A1.156,1.156,0,0,0,128.43,2.077Zm0,0" transform="translate(-110.714 -0.453)" fill="#003878"/>
      <path id="Path_78-3" data-name="Path 78" d="M260.7,6.008a2.777,2.777,0,1,1,2.778-2.777A2.781,2.781,0,0,1,260.7,6.008Zm0-3.931a1.154,1.154,0,1,0,1.155,1.154A1.155,1.155,0,0,0,260.7,2.077Zm0,0" transform="translate(-227.254 -0.453)" fill="#003878"/>
      <path id="Path_79-3" data-name="Path 79" d="M392.961,39.078a2.777,2.777,0,1,1,2.777-2.777A2.781,2.781,0,0,1,392.961,39.078Zm0-3.931a1.154,1.154,0,1,0,1.154,1.154A1.155,1.155,0,0,0,392.961,35.147Zm0,0" transform="translate(-343.795 -29.592)" fill="#003878"/>
      <path id="Path_80-3" data-name="Path 80" d="M2.777,39.078A2.777,2.777,0,1,1,5.555,36.3,2.781,2.781,0,0,1,2.777,39.078Zm0-3.931A1.154,1.154,0,1,0,3.932,36.3,1.155,1.155,0,0,0,2.777,35.147Zm0,0" transform="translate(0 -29.592)" fill="#003878"/>
    </g>
  </g>
</svg>
